{
    "antifeatures": {
        "Ads": "Aplikasi ini berisi iklan",
        "DisabledAlgorithm": "Aplikasi ini mempunyai tanda tangan keamanan yang lemah",
        "KnownVuln": "Aplikasi ini berisi kerentanan keamanan yang dikenal",
        "NoSourceSince": "Sumber kode ini sudah tidak tersedia, tidak akan ada pembaharuan.",
        "NonFreeAdd": "Aplikasi ini mempromosikan pengaya tak-bebas",
        "NonFreeAssets": "Apl ini mengandung aset tak-bebas",
        "NonFreeDep": "Aplikasi ini bergantung pada aplikasi tak-bebas lainnya",
        "NonFreeNet": "Aplikasi ini mempromosikan layanan jaringan tak-bebas",
        "Tracking": "Aplikasi ini melacak dan melaporkan aktivitas Anda",
        "UpstreamNonFree": "Kode sumber utama tidak sepenuhnya Bebas"
    },
    "index": {
        "download_fdroid": "Unduh F-Droid",
        "gpg_signature": "Tanda Tangan PGP",
        "introduction": "F-Droid adalah sebuah katalog aplikasi FOSS (Free and Open Source Software) untuk Android. Aplikasi clientnya membuat gampang untuk mencari, memasang, dan terus melacak pembaharuan di perangkat Anda.",
        "screenshot": "Tangkapan layar aplikasi F-Droid di Android",
        "title": "Apa itu F-Droid?"
    },
    "navigation": {
        "about": "Tentang",
        "browse": "Cari",
        "contribute": "Berkontribusi",
        "documentation": "Dokumen",
        "forum": "Forum",
        "issues": "Masalah",
        "news": "Berita"
    },
    "package": {
        "anti_features": "Anti-Fitur",
        "anti_features_warning": "Apl ini memiliki fitur yang Anda mungkin tidak suka.",
        "author": "Pencipta",
        "build_metadata": "Bangun Metadata",
        "changelog": "Catatan Perubahan",
        "donate": "Donasi",
        "download": "Unduh [file_extension]",
        "flattr": "Flattr",
        "gpg_signature": "Tanda Tangan PGP",
        "issue_tracker": "Pelacak Masalah",
        "liberapay": "Liberapay",
        "license": "Lisensi",
        "minimum_android_version": "Versi ini membutuhkan Android [android_version] atau diatasnya.",
        "new_in_version": "Versi baru [latest_version]",
        "packages": "Paket",
        "permissions": "Izin",
        "signed_by_developer": "Ini dibangun dan ditandatangani oleh pengembang asli.",
        "signed_by_fdroid": "Ini dibangun dan ditandatangani oleh F-Droid, dan dijamin sesuai dengan <a href=\"[source_code_url]\"> kode sumber tarball ini</a>.",
        "source_code": "Kode Sumber",
        "suggest_downloading_via_fdroid": "Meskipun pengunduhan APK tersedia, Anda harus mengetahui jika memasang seperti itu Anda tidak akan mendapat notifikasi pembaharuan dan itu merupakan cara mengunduh yang lebih tidak aman. Kami merekomendasikan untuk memasang client F-Droid dan memakainya.",
        "technical_info": "Info teknis",
        "version_info": "<b>Versi [package_version]</b> ([package_version_code]) - Ditambahkan pada [package_added_date]",
        "website": "Situs Web"
    },
    "sidebars": {
        "donate": {
            "bank_transfer_name": "Nama",
            "bitcoin_alt": "Donasi dengan Bitcoin",
            "flattr_alt": "Donasi dengan Flattr",
            "heading": "Donasi",
            "hellotux": "👕 kaos 👕 dari",
            "hellotux_alt": "HELLOTUX",
            "hellotux_donation": "F-Droid akan mendapatkan 3€ untuk setiap baju yang terjual.",
            "liberapay_alt": "Donasi dengan Liberapay",
            "litecoin_alt": "Donasi dengan Litecoin",
            "paypal_alt": "Donasi dengan PayPal",
            "powered_by_donations": "F-Droid ditenagai oleh donasi Anda!",
            "via_bank_transfer": "Transfer Bank"
        },
        "last_updated": {
            "heading": "Pembaharuan Terakhir"
        },
        "latest_packages": {
            "heading": "Aplikasi Terbaru"
        },
        "news": {
            "heading": "Berita"
        },
        "search": {
            "heading": "Cari Aplikasi",
            "noscript": "Membutuhkan JavaScript untuk diaktifkan",
            "search": "Cari"
        }
    }
}
